\contentsline {section}{\numberline {1}実験目的}{2}
\contentsline {section}{\numberline {2}原理}{2}
\contentsline {subsection}{\numberline {2.1}瞬時値}{2}
\contentsline {subsection}{\numberline {2.2}有効電力}{3}
\contentsline {subsection}{\numberline {2.3}無効電力}{3}
\contentsline {subsection}{\numberline {2.4}皮相電力}{3}
\contentsline {subsection}{\numberline {2.5}力率}{4}
\contentsline {section}{\numberline {3}実験方法}{5}
\contentsline {subsection}{\numberline {3.1}準備}{5}
\contentsline {subsection}{\numberline {3.2}手順}{5}
\contentsline {section}{\numberline {4}実験結果}{7}
\contentsline {subsection}{\numberline {4.1}RL負荷の電力測定}{7}
\contentsline {subsection}{\numberline {4.2}RC負荷の電力測定}{8}
\contentsline {section}{\numberline {5}考察}{10}
\contentsline {subsection}{\numberline {5.1}有効電力と電流の関係}{10}
\contentsline {subsection}{\numberline {5.2}有効電力と力率の関係}{10}
\contentsline {subsection}{\numberline {5.3}電力と電圧、電流、力率の関係}{13}
\contentsline {subsection}{\numberline {5.4}グループで議論した考察}{13}
\contentsline {subsection}{\numberline {5.5}個人の考察}{14}
\contentsline {subsubsection}{\numberline {5.5.1}大野}{14}
\contentsline {subsubsection}{\numberline {5.5.2}河村}{14}
\contentsline {subsubsection}{\numberline {5.5.3}土屋}{14}
\contentsline {subsubsection}{\numberline {5.5.4}中原}{14}
\contentsline {subsubsection}{\numberline {5.5.5}前田}{14}
\contentsline {section}{\numberline {6}結論}{15}
