\relax 
\@writefile{toc}{\contentsline {section}{\numberline {1}実験目的}{2}}
\@writefile{toc}{\contentsline {section}{\numberline {2}原理}{2}}
\@writefile{toc}{\contentsline {subsection}{\numberline {2.1}瞬時値}{2}}
\@writefile{toc}{\contentsline {subsection}{\numberline {2.2}有効電力}{3}}
\newlabel{paG}{{9}{3}}
\@writefile{toc}{\contentsline {subsection}{\numberline {2.3}無効電力}{3}}
\@writefile{toc}{\contentsline {subsection}{\numberline {2.4}皮相電力}{3}}
\@writefile{toc}{\contentsline {subsection}{\numberline {2.5}力率}{4}}
\@writefile{toc}{\contentsline {section}{\numberline {3}実験方法}{5}}
\@writefile{toc}{\contentsline {subsection}{\numberline {3.1}準備}{5}}
\@writefile{lot}{\contentsline {table}{\numberline {1}{\ignorespaces 使用器具名}}{5}}
\newlabel{1}{{1}{5}}
\@writefile{toc}{\contentsline {subsection}{\numberline {3.2}手順}{5}}
\@writefile{lof}{\contentsline {figure}{\numberline {1}{\ignorespaces 測定回路の回路図}}{6}}
\newlabel{j1}{{1}{6}}
\@writefile{toc}{\contentsline {section}{\numberline {4}実験結果}{7}}
\@writefile{toc}{\contentsline {subsection}{\numberline {4.1}RL負荷の電力測定}{7}}
\@writefile{lot}{\contentsline {table}{\numberline {2}{\ignorespaces 設定力率1.0における測定結果}}{7}}
\newlabel{XL10}{{2}{7}}
\@writefile{lot}{\contentsline {table}{\numberline {3}{\ignorespaces 設定力率0.8における測定結果}}{7}}
\newlabel{XL08}{{3}{7}}
\@writefile{lot}{\contentsline {table}{\numberline {4}{\ignorespaces 設定力率0.6における測定結果}}{7}}
\newlabel{XL06}{{4}{7}}
\@writefile{lot}{\contentsline {table}{\numberline {5}{\ignorespaces 設定力率0.4における測定結果}}{8}}
\newlabel{XL04}{{5}{8}}
\@writefile{lot}{\contentsline {table}{\numberline {6}{\ignorespaces 設定力率0.2における測定結果}}{8}}
\newlabel{XL02}{{6}{8}}
\@writefile{toc}{\contentsline {subsection}{\numberline {4.2}RC負荷の電力測定}{8}}
\@writefile{lot}{\contentsline {table}{\numberline {7}{\ignorespaces 設定力率1.0における測定結果}}{8}}
\newlabel{XC10}{{7}{8}}
\@writefile{lot}{\contentsline {table}{\numberline {8}{\ignorespaces 設定力率0.8における測定結果}}{9}}
\newlabel{XC08}{{8}{9}}
\@writefile{lot}{\contentsline {table}{\numberline {9}{\ignorespaces 設定力率0.6における測定結果}}{9}}
\newlabel{XC06}{{9}{9}}
\@writefile{lot}{\contentsline {table}{\numberline {10}{\ignorespaces 設定力率0.4における測定結果}}{9}}
\newlabel{XC04}{{10}{9}}
\@writefile{lot}{\contentsline {table}{\numberline {11}{\ignorespaces 設定力率0.2における測定結果}}{9}}
\newlabel{XC02}{{11}{9}}
\@writefile{toc}{\contentsline {section}{\numberline {5}考察}{10}}
\@writefile{toc}{\contentsline {subsection}{\numberline {5.1}有効電力と電流の関係}{10}}
\@writefile{lof}{\contentsline {figure}{\numberline {2}{\ignorespaces 電流と有効電力の関係 ($X_L$)}}{10}}
\newlabel{XL_WI}{{2}{10}}
\@writefile{lof}{\contentsline {figure}{\numberline {3}{\ignorespaces 電流と有効電力の関係 ($X_C$)}}{10}}
\newlabel{XC_WI}{{3}{10}}
\@writefile{toc}{\contentsline {subsection}{\numberline {5.2}有効電力と力率の関係}{10}}
\@writefile{lof}{\contentsline {figure}{\numberline {4}{\ignorespaces 力率と有効電力の関係 ($X_L$)}}{11}}
\newlabel{XL_Wcos}{{4}{11}}
\@writefile{lof}{\contentsline {figure}{\numberline {5}{\ignorespaces 力率と有効電力の関係 ($X_C$)}}{12}}
\newlabel{XC_Wcos}{{5}{12}}
\@writefile{toc}{\contentsline {subsection}{\numberline {5.3}電力と電圧、電流、力率の関係}{13}}
\@writefile{toc}{\contentsline {subsection}{\numberline {5.4}グループで議論した考察}{13}}
\@writefile{lot}{\contentsline {table}{\numberline {12}{\ignorespaces 無効電力}}{13}}
\newlabel{jh3}{{12}{13}}
\@writefile{toc}{\contentsline {subsection}{\numberline {5.5}個人の考察}{14}}
\@writefile{toc}{\contentsline {subsubsection}{\numberline {5.5.1}大野}{14}}
\@writefile{toc}{\contentsline {subsubsection}{\numberline {5.5.2}河村}{14}}
\@writefile{toc}{\contentsline {subsubsection}{\numberline {5.5.3}土屋}{14}}
\@writefile{toc}{\contentsline {subsubsection}{\numberline {5.5.4}中原}{14}}
\@writefile{toc}{\contentsline {subsubsection}{\numberline {5.5.5}前田}{14}}
\bibcite{1}{1}
\bibcite{2}{2}
\@writefile{toc}{\contentsline {section}{\numberline {6}結論}{15}}
